…
## `select` - subsetting columns

`select` operates in a similar fashion to `filter`, but allows for subsetting columns instead. Since `select` is primarily given column names (which can be thought of as text strings) for input, it also allows for easy globbing of multiple columns at once.

A quick aside - we are also going to convert `iris` to a tibble from this point onwards. Tibbles are another feature of `dplyr`; they're essentially data frame objects with a number of under-the-hood improvements, but those are somewhat beyond the scope of this lesson. What's relevant to us here is that they prevent R from printing out the entire data frame when it's called, and are also previewed in an informative format that tells us about the object types stored within each data frame column and more. ([More details here if you're interested.](https://cran.r-project.org/web/packages/tibble/vignettes/tibble.html))


```r
ir <- as_tibble(iris)

select(ir, Species)
```

```
## # A tibble: 150 x 1
##    Species
##     <fctr>
##  1  setosa
##  2  setosa
##  3  setosa
##  4  setosa
##  5  setosa
##  6  setosa
##  7  setosa
##  8  setosa
##  9  setosa
## 10  setosa
## # ... with 140 more rows
```

We can select multiple columns by simply providing their names as further arguments. `dplyr` also allows use of the `:` operator for consecutive columns.


```r
select(ir, Sepal.Length:Petal.Length, Species)
```

```
## # A tibble: 150 x 4
##    Sepal.Length Sepal.Width Petal.Length Species
##           <dbl>       <dbl>        <dbl>  <fctr>
##  1          5.1         3.5          1.4  setosa
##  2          4.9         3.0          1.4  setosa
##  3          4.7         3.2          1.3  setosa
##  4          4.6         3.1          1.5  setosa
##  5          5.0         3.6          1.4  setosa
##  6          5.4         3.9          1.7  setosa
##  7          4.6         3.4          1.4  setosa
##  8          5.0         3.4          1.5  setosa
##  9          4.4         2.9          1.4  setosa
## 10          4.9         3.1          1.5  setosa
## # ... with 140 more rows
```

The `-` operator can be used to exclude a column:


```r
select(ir, -Species)
```

```
## # A tibble: 150 x 4
##    Sepal.Length Sepal.Width Petal.Length Petal.Width
##           <dbl>       <dbl>        <dbl>       <dbl>
##  1          5.1         3.5          1.4         0.2
##  2          4.9         3.0          1.4         0.2
##  3          4.7         3.2          1.3         0.2
##  4          4.6         3.1          1.5         0.2
##  5          5.0         3.6          1.4         0.2
##  6          5.4         3.9          1.7         0.4
##  7          4.6         3.4          1.4         0.3
##  8          5.0         3.4          1.5         0.2
##  9          4.4         2.9          1.4         0.2
## 10          4.9         3.1          1.5         0.1
## # ... with 140 more rows
```

Finally, `select` features the helper functions `contains`, `starts_with`, and `ends_with` for globbing column names. Note that while we generally treat column names as objects in the body of `dplyr` functions, these helper functions _require strings as input_.


```r
select(ir, contains('Sepal'))
```

```
## # A tibble: 150 x 2
##    Sepal.Length Sepal.Width
##           <dbl>       <dbl>
##  1          5.1         3.5
##  2          4.9         3.0
##  3          4.7         3.2
##  4          4.6         3.1
##  5          5.0         3.6
##  6          5.4         3.9
##  7          4.6         3.4
##  8          5.0         3.4
##  9          4.4         2.9
## 10          4.9         3.1
## # ... with 140 more rows
```

```r
select(ir, starts_with('Petal'))
```

```
## # A tibble: 150 x 2
##    Petal.Length Petal.Width
##           <dbl>       <dbl>
##  1          1.4         0.2
##  2          1.4         0.2
##  3          1.3         0.2
##  4          1.5         0.2
##  5          1.4         0.2
##  6          1.7         0.4
##  7          1.4         0.3
##  8          1.5         0.2
##  9          1.4         0.2
## 10          1.5         0.1
## # ... with 140 more rows
```

```r
select(ir, ends_with('Length'))
```

```
## # A tibble: 150 x 2
##    Sepal.Length Petal.Length
##           <dbl>        <dbl>
##  1          5.1          1.4
##  2          4.9          1.4
##  3          4.7          1.3
##  4          4.6          1.5
##  5          5.0          1.4
##  6          5.4          1.7
##  7          4.6          1.4
##  8          5.0          1.5
##  9          4.4          1.4
## 10          4.9          1.5
## # ... with 140 more rows
```

### Here comes the pipe

But what if we want to select certain columns, _and then_ filter the resultant rows by a certain condition? (Or vice versa)

We could certainly nest functions, like so:


```r
filter(select(ir, contains('Sepal')), Sepal.Length >= 7.0)
```

```
## # A tibble: 13 x 2
##    Sepal.Length Sepal.Width
##           <dbl>       <dbl>
##  1          7.0         3.2
##  2          7.1         3.0
##  3          7.6         3.0
##  4          7.3         2.9
##  5          7.2         3.6
##  6          7.7         3.8
##  7          7.7         2.6
##  8          7.7         2.8
##  9          7.2         3.2
## 10          7.2         3.0
## # ... with 3 more rows
```

But this is messy enough as is, and that's just with a single instance of nesting. Imagine we had three or four nested functions! We'd fast approach having more parentheses than actual code.

An alternative is using intermediate objects:


```r
sepals <- select(ir, contains('Sepal'))
filter(sepals, Sepal.Length >= 7.0)
```

```
## # A tibble: 13 x 2
##    Sepal.Length Sepal.Width
##           <dbl>       <dbl>
##  1          7.0         3.2
##  2          7.1         3.0
##  3          7.6         3.0
##  4          7.3         2.9
##  5          7.2         3.6
##  6          7.7         3.8
##  7          7.7         2.6
##  8          7.7         2.8
##  9          7.2         3.2
## 10          7.2         3.0
## # ... with 3 more rows
```

But that can be a drain on memory if we're working with large amounts of data; not to mention that the number of intermediates would only grow as our analysis goes on, increasingly cluttering our workspace.

However, recall that every `dplyr` function both takes in a data frame object as its first argument, and returns one as output. With this being the case, the pipe allows us to easily chain `dplyr` functions together.


```r
ir %>% 
  select(contains('Sepal')) %>% 
  filter(Sepal.Length >= 7.0)
```

```
## # A tibble: 13 x 2
##    Sepal.Length Sepal.Width
##           <dbl>       <dbl>
##  1          7.0         3.2
##  2          7.1         3.0
##  3          7.6         3.0
##  4          7.3         2.9
##  5          7.2         3.6
##  6          7.7         3.8
##  7          7.7         2.6
##  8          7.7         2.8
##  9          7.2         3.2
## 10          7.2         3.0
## # ... with 3 more rows
```
…
## `arrange` - sort your data

Much like the name implies, `arrange` allows us to sort data. Not much to it:


```r
ir %>% 
  select(starts_with('Sepal')) %>% 
  filter(Sepal.Length >= 7.0) %>% 
  arrange(Sepal.Length)
```

```
## # A tibble: 13 x 2
##    Sepal.Length Sepal.Width
##           <dbl>       <dbl>
##  1          7.0         3.2
##  2          7.1         3.0
##  3          7.2         3.6
##  4          7.2         3.2
##  5          7.2         3.0
##  6          7.3         2.9
##  7          7.4         2.8
##  8          7.6         3.0
##  9          7.7         3.8
## 10          7.7         2.6
## # ... with 3 more rows
```

Sorting in descending order is not much harder:


```r
ir %>% 
  select(starts_with('Sepal')) %>% 
  filter(Sepal.Length >= 7.0) %>% 
  arrange(desc(Sepal.Length))
```

```
## # A tibble: 13 x 2
##    Sepal.Length Sepal.Width
##           <dbl>       <dbl>
##  1          7.9         3.8
##  2          7.7         3.8
##  3          7.7         2.6
##  4          7.7         2.8
##  5          7.7         3.0
##  6          7.6         3.0
##  7          7.4         2.8
##  8          7.3         2.9
##  9          7.2         3.6
## 10          7.2         3.2
## # ... with 3 more rows
```

Finally, feeding two (or more) arguments to `arrange` will be interpreted as 'sort by first column and then by second column'.


```r
ir %>% 
  select(starts_with('Sepal')) %>% 
  filter(Sepal.Length >= 7.0) %>% 
  arrange(Sepal.Length, Sepal.Width)
```

```
## # A tibble: 13 x 2
##    Sepal.Length Sepal.Width
##           <dbl>       <dbl>
##  1          7.0         3.2
##  2          7.1         3.0
##  3          7.2         3.0
##  4          7.2         3.2
##  5          7.2         3.6
##  6          7.3         2.9
##  7          7.4         2.8
##  8          7.6         3.0
##  9          7.7         2.6
## 10          7.7         2.8
## # ... with 3 more rows
```
…
`mutate` is arguably where `dplyr` really comes to life. So far, we've just been playing around with existing data, subsetting it and arranging it how we please. Which is certainly very useful! But `mutate` allows us to create entirely new variables (i.e. columns) in our data frame object out of operations performed on the data frame itself.

`mutate` employs _window functions_ in order to do this. Unlike an _aggregation function_ (such as `mean`) which takes in $n$ values and returns one value, a window function will take in $n$ elements as input and return $n$ elements as output. In the case of `mutate`, this means performing an operation on every single row of a data frame and returning the resultant values in a new column.

Let's use `mutate` to calculate the approximate area of sepals and petals in our dataset.


```r
ir %>% 
  select(contains('Sepal')) %>% 
  mutate(Sepal.Area = Sepal.Length * Sepal.Width)
```

```
## # A tibble: 150 x 3
##    Sepal.Length Sepal.Width Sepal.Area
##           <dbl>       <dbl>      <dbl>
##  1          5.1         3.5      17.85
##  2          4.9         3.0      14.70
##  3          4.7         3.2      15.04
##  4          4.6         3.1      14.26
##  5          5.0         3.6      18.00
##  6          5.4         3.9      21.06
##  7          4.6         3.4      15.64
##  8          5.0         3.4      17.00
##  9          4.4         2.9      12.76
## 10          4.9         3.1      15.19
## # ... with 140 more rows
```

We could also get the differences between sepal length and petal length for each flower:


```r
ir %>% 
  select(ends_with('Length')) %>% 
  mutate(Length.Diff = Sepal.Length - Petal.Length)
```

```
## # A tibble: 150 x 3
##    Sepal.Length Petal.Length Length.Diff
##           <dbl>        <dbl>       <dbl>
##  1          5.1          1.4         3.7
##  2          4.9          1.4         3.5
##  3          4.7          1.3         3.4
##  4          4.6          1.5         3.1
##  5          5.0          1.4         3.6
##  6          5.4          1.7         3.7
##  7          4.6          1.4         3.2
##  8          5.0          1.5         3.5
##  9          4.4          1.4         3.0
## 10          4.9          1.5         3.4
## # ... with 140 more rows
```
…
Of course, if we are performing some kind of complex operation that `mutate` is behaving strangely with, we can use `rowwise` to evaluate the operation one row at a time.


```r
ir %>% 
  select(ends_with('Length'), Species) %>% 
  rowwise() %>% 
  mutate(Length.Diff = Sepal.Length - Petal.Length)
```

```
## Source: local data frame [150 x 4]
## Groups: <by row>
## 
## # A tibble: 150 x 4
##    Sepal.Length Petal.Length Species Length.Diff
##           <dbl>        <dbl>  <fctr>       <dbl>
##  1          5.1          1.4  setosa         3.7
##  2          4.9          1.4  setosa         3.5
##  3          4.7          1.3  setosa         3.4
##  4          4.6          1.5  setosa         3.1
##  5          5.0          1.4  setosa         3.6
##  6          5.4          1.7  setosa         3.7
##  7          4.6          1.4  setosa         3.2
##  8          5.0          1.5  setosa         3.5
##  9          4.4          1.4  setosa         3.0
## 10          4.9          1.5  setosa         3.4
## # ... with 140 more rows
```

Finally, it is sometimes useful to drop all other columns once we've performed a `mutate` operation. Instead of having to use `select` after the fact to keep the columns we need, `transmute` is a version of `mutate` that only keeps the variables you create.


```r
ir %>% 
  select(contains('Sepal'), Species) %>% 
  transmute(Sepal.Area = Sepal.Length * Sepal.Width)
```

```
## # A tibble: 150 x 1
##    Sepal.Area
##         <dbl>
##  1      17.85
##  2      14.70
##  3      15.04
##  4      14.26
##  5      18.00
##  6      21.06
##  7      15.64
##  8      17.00
##  9      12.76
## 10      15.19
## # ... with 140 more rows
```
…
`group_by` also works with `mutate` for grouped operations. For instance, if we want to examine the ratio of each flower's sepal length from the mean for that species, we could try something like this:


```r
ir %>% 
  select(Sepal.Length, Species) %>% 
  group_by(Species) %>% 
  mutate(Grouped.SL.Ratio = Sepal.Length / mean(Sepal.Length))
```

```
## # A tibble: 150 x 3
## # Groups:   Species [3]
##    Sepal.Length Species Grouped.SL.Ratio
##           <dbl>  <fctr>            <dbl>
##  1          5.1  setosa        1.0187775
##  2          4.9  setosa        0.9788254
##  3          4.7  setosa        0.9388734
##  4          4.6  setosa        0.9188973
##  5          5.0  setosa        0.9988014
##  6          5.4  setosa        1.0787056
##  7          4.6  setosa        0.9188973
##  8          5.0  setosa        0.9988014
##  9          4.4  setosa        0.8789453
## 10          4.9  setosa        0.9788254
## # ... with 140 more rows
```
…
